{
  "componentId" : "a1365ef7-34d6-4373-a8da-86ba817a886a",
  "packageVersion" : "10",
  "componentType" : "process",
  "createdDate" : "20210422 112010.000",
  "createdBy" : "shayan.becceea",
  "packageId" : "f32b2ee4-e293-4b13-9ab9-31d0ce97e1a4"
}